<svg width="32" height="32" viewBox="0 0 32 32" fill="none" xmlns="http://www.w3.org/2000/svg">
<path d="M16.0001 2.66663C8.64808 2.66663 2.66675 8.64796 2.66675 16C2.66675 23.352 8.64808 29.3333 16.0001 29.3333C23.3521 29.3333 29.3334 23.352 29.3334 16C29.3334 8.64796 23.3521 2.66663 16.0001 2.66663ZM16.0001 26.6666C10.1187 26.6666 5.33341 21.8813 5.33341 16C5.33341 10.1186 10.1187 5.33329 16.0001 5.33329C21.8814 5.33329 26.6667 10.1186 26.6667 16C26.6667 21.8813 21.8814 26.6666 16.0001 26.6666Z" fill="#059669"/>
<path d="M13.332 18.116L10.2667 15.056L8.38403 16.944L13.3347 21.884L22.276 12.9427L20.3907 11.0574L13.332 18.116Z" fill="#059669"/>
</svg>
