<svg width="24" height="24" viewBox="0 0 24 24" fill="none" xmlns="http://www.w3.org/2000/svg">
<path d="M11 8.414V18H13V8.414L17.293 12.707L18.707 11.293L12 4.586L5.293 11.293L6.707 12.707L11 8.414Z" fill="black"/>
</svg>
